soc-final-project/nthu/FinalProject_group12/final_project/MM_test/PATTERN_testbench.vcd
$date
	Mon Jan 15 18:50:49 2024
$end
$version
	Icarus Verilog
$end
$timescale
	1ps
$end
$scope module PATTERN_testbench $end
$var wire 1 ! ss_tready $end
$var wire 1 " sm_tvalid $end
$var wire 32 # sm_tdata [31:0] $end
$var wire 1 $ mm_start $end
$var wire 1 % mm_idle $end
$var wire 1 & mm_done $end
$var reg 1 ' axis_clk $end
$var reg 1 ( axis_rst_n $end
$var reg 1 ) sm_tready $end
$var reg 32 * ss_tdata [31:0] $end
$var reg 1 + ss_tvalid $end
$scope module mm_U0 $end
$var wire 1 ' axis_clk $end
$var wire 1 ( axis_rst_n $end
$var wire 1 ) sm_tready $end
$var wire 1 " sm_tvalid $end
$var wire 32 , ss_tdata [31:0] $end
$var wire 1 + ss_tvalid $end
$var wire 1 ! ss_tready $end
$var wire 32 - sm_tdata [31:0] $end
$var wire 1 . output_valid $end
$var wire 1 / output_flag $end
$var wire 1 $ mm_start $end
$var wire 1 % mm_idle $end
$var wire 1 & mm_done $end
$var wire 32 0 mac4 [31:0] $end
$var wire 32 1 mac3 [31:0] $end
$var wire 32 2 mac2 [31:0] $end
$var wire 32 3 mac1 [31:0] $end
$var wire 1 4 input_valid $end
$var wire 1 5 input_B_flag $end
$var wire 1 6 input_A_flag $end
$var reg 32 7 A1 [31:0] $end
$var reg 32 8 A2 [31:0] $end
$var reg 32 9 A3 [31:0] $end
$var reg 32 : A4 [31:0] $end
$var reg 32 ; B11 [31:0] $end
$var reg 32 < B12 [31:0] $end
$var reg 32 = B13 [31:0] $end
$var reg 32 > B14 [31:0] $end
$var reg 32 ? B21 [31:0] $end
$var reg 32 @ B22 [31:0] $end
$var reg 32 A B23 [31:0] $end
$var reg 32 B B24 [31:0] $end
$var reg 32 C B31 [31:0] $end
$var reg 32 D B32 [31:0] $end
$var reg 32 E B33 [31:0] $end
$var reg 32 F B34 [31:0] $end
$var reg 32 G B41 [31:0] $end
$var reg 32 H B42 [31:0] $end
$var reg 32 I B43 [31:0] $end
$var reg 32 J B44 [31:0] $end
$var reg 4 K c_state [3:0] $end
$var reg 3 L cnt_A_input [2:0] $end
$var reg 5 M cnt_B_input [4:0] $end
$var reg 5 N cnt_output [4:0] $end
$var reg 4 O n_state [3:0] $end
$var reg 4 P stop_state [3:0] $end
$upscope $end
$scope task fail_task $end
$upscope $end
$scope task input_task_A $end
$var reg 32 Q in1 [31:0] $end
$upscope $end
$scope task input_task_B $end
$var reg 32 R in1 [31:0] $end
$upscope $end
$scope task main_task $end
$upscope $end
$scope task pass_task $end
$upscope $end
$scope task reset_task $end
$upscope $end
$upscope $end
$enddefinitions $end
#0
$dumpvars
bx R
bx Q
bx P
b0 O
bx N
bx M
bx L
bx K
bx J
bx I
bx H
bx G
bx F
bx E
bx D
bx C
bx B
bx A
bx @
bx ?
bx >
bx =
bx <
bx ;
bx :
bx 9
bx 8
bx 7
x6
x5
x4
bx 3
bx 2
bx 1
bx 0
x/
x.
bx -
bx ,
0+
bx *
0)
1(
0'
0&
0%
0$
bx #
x"
x!
$end
#800
0"
0/
06
05
04
1!
0.
b0 #
b0 -
b11 P
b1 O
b0 3
b0 2
b0 1
b0 0
b0 K
b0 L
b0 M
b0 N
b0 7
b0 8
b0 9
b0 :
b0 ;
b0 ?
b0 C
b0 G
b0 <
b0 @
b0 D
b0 H
b0 =
b0 A
b0 E
b0 I
b0 >
b0 B
b0 F
b0 J
0(
1'
#1600
b1 Q
1)
1(
0'
#2400
b1 K
b11 O
1$
b1 *
b1 ,
1+
1'
#3200
0'
#4000
14
b11 K
b1 L
b10 7
b10 *
b10 ,
b10 Q
1'
#4800
0'
#5600
b11 8
b10 L
b11 *
b11 ,
b11 Q
1'
#6400
0'
#7200
b11 L
b100 9
b100 *
b100 ,
b100 Q
1'
#8000
0'
#8800
16
b1010 P
b100 O
b100 :
b100 L
b0 *
b0 ,
b0 R
1'
#9600
0'
#10400
b100 P
b100 K
b0 L
b1 M
b100 *
b100 ,
b100 R
1'
#11200
0'
#12000
b100 ?
b10 M
b1000 *
b1000 ,
b1000 R
1'
#12800
0'
#13600
b11 M
b1000 C
b1100 *
b1100 ,
b1100 R
1'
#14400
0'
#15200
b1011100 #
b1011100 -
1&
b1011100 3
1"
1/
b101 O
15
b1100 G
b100 M
b1 *
b1 ,
b1 R
1'
#16000
0'
#16800
0&
b0 3
0"
0/
05
1.
04
b0 #
b0 -
b100 O
b0 2
b101 K
b101 M
b1 N
b1 <
b101 *
b101 ,
b101 R
1'
#17600
0'
#18400
0.
14
b101 @
b110 M
b100 K
b1001 *
b1001 ,
b1001 R
1'
#19200
0'
#20000
b111 M
b1001 D
b1101 *
b1101 ,
b1101 R
1'
#20800
0'
#21600
b1101001 #
b1101001 -
1&
b1011100 3
b1101001 2
1"
1/
b101 O
15
b1101 H
b1000 M
b10 *
b10 ,
b10 R
1'
#22400
0'
#23200
0&
b0 3
b0 2
0"
0/
05
16
1.
04
b0 #
b0 -
b100 O
b0 1
b101 K
b1001 M
b10 N
b10 =
b110 *
b110 ,
b110 R
1'
#24000
0'
#24800
0.
14
b110 A
b1010 M
b100 K
b1010 *
b1010 ,
b1010 R
1'
#25600
0'
#26400
b1011 M
b1010 E
b1110 *
b1110 ,
b1110 R
1'
#27200
0'
#28000
b1110110 #
b1110110 -
1&
b1011100 3
b1101001 2
b1110110 1
1"
1/
b101 O
15
b1110 I
b1100 M
b11 *
b11 ,
b11 R
1'
#28800
0'
#29600
0&
b0 3
b0 2
b0 1
0"
0/
05
1.
16
b0 #
b0 -
04
b100 O
b0 0
b101 K
b1101 M
b11 N
b11 >
b111 *
b111 ,
b111 R
1'
#30400
0'
#31200
0.
14
b111 B
b1110 M
b100 K
b1011 *
b1011 ,
b1011 R
1'
#32000
0'
#32800
b1111 M
b1011 F
b1111 *
b1111 ,
b1111 R
1'
#33600
0'
#34400
b1011011 #
b1011011 -
1&
b1011100 3
b1101001 2
b1110110 1
b1011011 0
1"
1/
0$
b101 O
15
0!
b1010 P
b101 J
b10000 M
b101 *
b101 ,
b101 Q
1'
#35200
0'
#36000
0&
1$
b0 3
b0 2
b0 1
b0 0
05
0"
0/
1!
1.
16
04
b0 #
b0 -
b110 P
b110 O
b101 K
b10001 M
b100 N
1'
#36800
0'
#37600
06
14
0.
b110 7
b1 L
b110 K
b110 *
b110 ,
b110 Q
1'
#38400
0'
#39200
b10 L
b111 8
b111 *
b111 ,
b111 Q
1'
#40000
0'
#40800
b1000 9
b11 L
b1000 *
b1000 ,
b1000 Q
1'
#41600
0'
#42400
0$
0!
b111 O
b100 L
b1001 :
b1001 *
b1001 ,
b1001 Q
1'
#43200
0'
#44000
b11001000 #
b11001000 -
1&
b11001000 3
b11100110 2
b100000100 1
b11001000 0
1"
1/
0$
16
0!
04
1.
15
b111 O
b0 L
b111 K
1'
#44800
0'
#45600
b11100110 #
b11100110 -
b1010 P
b101 N
1'
#46400
0'
#47200
b100000100 #
b100000100 -
b110 N
1'
#48000
0'
#48800
1$
1!
b11001000 #
b11001000 -
b1000 P
b1000 O
b111 N
1'
#49600
0'
#50400
0&
b0 #
b0 -
b0 3
06
0"
0/
14
0.
05
b0 2
b0 1
b0 0
b1010 7
b1000 N
b1 L
b1000 K
b1010 *
b1010 ,
b1010 Q
1'
#51200
0'
#52000
b10 L
b1011 8
b1011 *
b1011 ,
b1011 Q
1'
#52800
0'
#53600
b1100 9
b11 L
b1100 *
b1100 ,
b1100 Q
1'
#54400
0'
#55200
0$
0!
b1001 O
b100 L
b1101 :
b1101 *
b1101 ,
b1101 Q
1'
#56000
0'
#56800
b100101000 #
b100101000 -
1&
b100101000 3
b101010110 2
b110000100 1
b100110000 0
1"
1/
0$
16
0!
04
1.
15
b1001 O
b0 L
b1001 K
1'
#57600
0'
#58400
b101010110 #
b101010110 -
b1010 P
b1001 N
1'
#59200
0'
#60000
b110000100 #
b110000100 -
b1010 N
1'
#60800
0'
#61600
1$
1!
b100110000 #
b100110000 -
b1010 O
b1011 N
1'
#62400
0'
#63200
0&
b0 3
06
0"
0/
14
0.
05
b0 #
b0 -
b0 2
b0 1
b0 0
b1110 7
b1100 N
b1 L
b1010 K
b1110 *
b1110 ,
b1110 Q
1'
#64000
0'
#64800
b10 L
b1111 8
b1111 *
b1111 ,
b1111 Q
1'
#65600
0'
#66400
b10000 9
b11 L
b10000 *
b10000 ,
b10000 Q
1'
#67200
0'
#68000
0$
0!
b1011 O
b100 L
b10000 :
1'
#68800
0'
#69600
b101111100 #
b101111100 -
1&
b101111100 3
b110111001 2
b111110110 1
b110010011 0
1"
1/
0$
16
0!
04
1.
15
b1011 O
b0 L
b1011 K
1'
#70400
0'
#71200
b110111001 #
b110111001 -
b1101 N
1'
#72000
0'
#72800
b111110110 #
b111110110 -
b1110 N
1'
#73600
0'
#74400
b1100 O
b110010011 #
b110010011 -
1%
b1111 N
1'
#75200
0'
#76000
0&
1$
b0 3
b0 2
b0 1
b0 0
06
0"
0/
1!
0%
0.
05
b0 #
b0 -
b11 P
b0 O
b0 N
b0 M
b1100 K
1'
#76800
0'
#77600
b11 O
b0 K
1'
#78400
0'
#79200
14
b10000 7
b1 L
b11 K
1'
#80000
0'
#80800
b10 L
b10000 8
1'
#81600
0'
#82400
b11 L
1'
#83200
0'
#84000
16
b1010 P
b100 O
b100 L
1'
#84800
0'
#85600
b100 P
b10000 ;
b1 M
b0 L
b100 K
1'
#86400
0'
#87200
b10 M
b10000 ?
1'
#88000
0'
#88800
b10000 C
b11 M
1'
#89600
0'
#90400
b10000000000 #
b10000000000 -
1&
b10000000000 3
b111000000 2
b1000000000 1
b110100000 0
1"
1/
b101 O
15
b100 M
b10000 G
1'
#91200
0'
#92000
0&
b0 3
b0 1
b0 0
0"
0/
05
1.
04
b0 #
b0 -
b0 2
b100 O
b10000 <
b1 N
b101 M
b101 K
1'
#92800
0'
#93600
0.
14
b100 K
b110 M
b10000 @
1'
#94400
0'
#95200
b10000 D
b111 M
1'
#96000
0'
#96800
b10000000000 #
b10000000000 -
1&
b10000000000 3
b10000000000 2
b1000000000 1
b110100000 0
1"
1/
b101 O
15
b1000 M
b10000 H
1'
#97600
0'
#98400
0&
b0 3
b0 2
b0 0
0"
0/
05
16
1.
b0 #
b0 -
04
b0 1
b100 O
b10000 =
b10 N
b1001 M
b101 K
1'
#99200
0'
#100000
0.
14
b100 K
b1010 M
b10000 A
1'
#100800
0'
#101600
b10000 E
b1011 M
1'
#102400
0'
#103200
b10000000000 #
b10000000000 -
1&
b10000000000 3
b10000000000 2
b10000000000 1
b110100000 0
1"
1/
b101 O
15
b1100 M
b10000 I
1'
#104000
0'
#104800
0&
b0 3
b0 2
b0 1
0"
0/
05
16
1.
b0 #
b0 -
04
b0 0
b100 O
b10000 >
b11 N
b1101 M
b101 K
1'
#105600
0'
#106400
0.
14
b100 K
b1110 M
b10000 B
1'
#107200
0'
#108000
b10000 F
b1111 M
1'
#108800
0'
#109600
b10000000000 #
b10000000000 -
1&
b10000000000 3
b10000000000 2
b10000000000 1
b10000000000 0
1"
1/
0$
b101 O
15
0!
b1010 P
b10000 M
b10000 J
1'
#110400
0'
#111200
0&
1$
b0 #
b0 -
b0 3
b0 2
b0 1
b0 0
05
0"
0/
1!
1.
16
04
b110 P
b110 O
b100 N
b10001 M
b101 K
1'
#112000
0'
#112800
06
14
0.
b110 K
b1 L
1'
#113600
0'
#114400
b10 L
1'
#115200
0'
#116000
b11 L
1'
#116800
0'
#117600
0$
0!
b111 O
b100 L
1'
#118400
0'
#119200
b10000000000 #
b10000000000 -
1&
b10000000000 3
b10000000000 2
b10000000000 1
b10000000000 0
1"
1/
0$
16
0!
04
1.
15
b111 O
b111 K
b0 L
1'
#120000
0'
#120800
b1010 P
b101 N
1'
#121600
0'
#122400
b110 N
1'
#123200
0'
#124000
1$
1!
b1000 P
b1000 O
b111 N
1'
#124800
0'
#125600
0&
b0 #
b0 -
b0 3
b0 2
b0 1
b0 0
06
0"
0/
14
0.
05
b1000 K
b1 L
b1000 N
1'
#126400
0'
#127200
b10 L
1'
#128000
0'
#128800
b11 L
1'
#129600
0'
#130400
0$
0!
b1001 O
b100 L
1'
#131200
0'
#132000
b10000000000 #
b10000000000 -
1&
b10000000000 3
b10000000000 2
b10000000000 1
b10000000000 0
1"
1/
0$
16
0!
04
1.
15
b1001 O
b1001 K
b0 L
1'
#132800
0'
#133600
b1010 P
b1001 N
1'
#134400
0'
#135200
b1010 N
1'
#136000
0'
#136800
1$
1!
b1010 O
b1011 N
1'
#137600
0'
#138400
0&
b0 #
b0 -
b0 3
b0 2
b0 1
b0 0
06
0"
0/
14
0.
05
b1010 K
b1 L
b1100 N
1'
#139200
0'
#140000
b10 L
1'
#140800
0'
#141600
b11 L
1'
#142400
0'
#143200
0$
0!
b1011 O
b100 L
1'
#144000
0'
#144800
b10000000000 #
b10000000000 -
1&
b10000000000 3
b10000000000 2
b10000000000 1
b10000000000 0
1"
1/
0$
16
0!
04
1.
15
b1011 O
b1011 K
b0 L
1'
#145600
0'
#146400
b1101 N
1'
#147200
0'
#148000
b1110 N
1'
#148800
0'
#149600
b1100 O
1%
b1111 N
1'
#150400
0'
#151200
0&
b0 #
b0 -
b0 3
b0 2
b0 1
b0 0
1$
06
0"
0/
1!
0.
05
0%
b11 P
b0 O
b1100 K
b0 M
b0 N
1'
#152000
0'
#152800
b11 O
b0 K
1'
#153600
0'
#154400
14
b11 K
b1 L
1'
#155200
0'
#156000
b10 L
1'
#156800
0'
#157600
b11 L
1'
#158400
0'
#159200
16
b1010 P
b100 O
b100 L
1'
#160000
0'
#160800
b100 P
b100 K
b0 L
b1 M
1'
#161600
0'
#162400
b10 M
1'
#163200
0'
#164000
b11 M
1'
#164800
0'
#165600
b10000000000 #
b10000000000 -
1&
b10000000000 3
b10000000000 2
b10000000000 1
b10000000000 0
1"
1/
b101 O
15
b100 M
1'
#166400
0'
#167200
b0 #
b0 -
0&
b0 3
b0 2
b0 1
b0 0
0"
0/
05
1.
04
b100 O
b101 K
b101 M
b1 N
1'
#168000
0'
#168800
0.
14
b110 M
b100 K
1'
#169600
0'
#170400
b111 M
1'
#171200
0'
#172000
b10000000000 #
b10000000000 -
1&
b10000000000 3
b10000000000 2
b10000000000 1
b10000000000 0
1"
1/
b101 O
15
b1000 M
1'
#172800
0'
#173600
b0 #
b0 -
0&
b0 3
b0 2
b0 1
b0 0
0"
0/
05
16
1.
04
b100 O
b101 K
b1001 M
b10 N
1'
#174400
0'
#175200
0.
14
b1010 M
b100 K
1'
#176000
0'
#176800
b1011 M
1'
#177600
0'
#178400
b10000000000 #
b10000000000 -
1&
b10000000000 3
b10000000000 2
b10000000000 1
b10000000000 0
1"
1/
b101 O
15
b1100 M
1'
#179200
0'
#180000
b0 #
b0 -
0&
b0 3
b0 2
b0 1
b0 0
0"
0/
05
1.
16
04
b100 O
b101 K
b1101 M
b11 N
1'
#180800
0'
#181600
0.
14
b1110 M
b100 K
1'
#182400
0'
#183200
b1111 M
1'
#184000
0'
#184800
b10000000000 #
b10000000000 -
1&
b10000000000 3
b10000000000 2
b10000000000 1
b10000000000 0
1"
1/
0$
b101 O
15
0!
b1010 P
b10000 M
1'
#185600
0'
#186400
0&
1$
b0 #
b0 -
b0 3
b0 2
b0 1
b0 0
05
0"
0/
1!
1.
16
04
b110 P
b110 O
b101 K
b10001 M
b100 N
1'
#187200
0'
#188000
06
14
0.
b1 L
b110 K
1'
#188800
0'
#189600
b10 L
1'
#190400
0'
#191200
b11 L
1'
#192000
0'
#192800
0$
0!
b111 O
b100 L
1'
#193600
0'
#194400
b10000000000 #
b10000000000 -
1&
b10000000000 3
b10000000000 2
b10000000000 1
b10000000000 0
1"
1/
0$
16
0!
04
1.
15
b111 O
b0 L
b111 K
1'
#195200
0'
#196000
b1010 P
b101 N
1'
#196800
0'
#197600
b110 N
1'
#198400
0'
#199200
1$
1!
b1000 P
b1000 O
b111 N
1'
#200000
0'
#200800
0&
b0 #
b0 -
b0 3
b0 2
b0 1
b0 0
06
0"
0/
14
0.
05
b1000 N
b1 L
b1000 K
1'
#201600
0'
#202400
b10 L
1'
#203200
0'
#204000
b11 L
1'
#204800
0'
#205600
0$
0!
b1001 O
b100 L
1'
#206400
0'
#207200
b10000000000 #
b10000000000 -
1&
b10000000000 3
b10000000000 2
b10000000000 1
b10000000000 0
1"
1/
0$
16
0!
04
1.
15
b1001 O
b0 L
b1001 K
1'
#208000
0'
#208800
b1010 P
b1001 N
1'
#209600
0'
#210400
b1010 N
1'
#211200
0'
#212000
1$
1!
b1010 O
b1011 N
1'
#212800
0'
#213600
0&
b0 #
b0 -
b0 3
b0 2
b0 1
b0 0
06
0"
0/
14
0.
05
b1100 N
b1 L
b1010 K
1'
#214400
0'
#215200
b10 L
1'
#216000
0'
#216800
b11 L
1'
#217600
0'
#218400
0$
0!
b1011 O
b100 L
1'
#219200
0'
#220000
b10000000000 #
b10000000000 -
1&
b10000000000 3
b10000000000 2
b10000000000 1
b10000000000 0
1"
1/
0$
16
0!
04
1.
15
b1011 O
b0 L
b1011 K
1'
#220800
0'
#221600
b1101 N
1'
#222400
0'
#223200
b1110 N
1'
#224000
0'
#224800
b1100 O
1%
b1111 N
1'
#225600
0'
#226400
0&
b0 #
b0 -
1$
b0 3
b0 2
b0 1
b0 0
06
0"
0/
1!
0%
0.
05
b11 P
b0 O
b0 N
b0 M
b1100 K
1'
#227200
0'
#228000
b11 O
b0 K
1'
#228800
0'
#229600
14
b1 L
b11 K
1'
#230400
0'
#231200
b10 L
1'
#232000
0'
#232800
b11 L
1'
#233600
0'
#234400
16
b1010 P
b100 O
b100 L
1'
#235200
0'
#236000
b100 P
b1 M
b0 L
b100 K
1'
#236800
0'
#237600
b10 M
1'
#238400
0'
#239200
b11 M
1'
#240000
0'
#240800
b10000000000 #
b10000000000 -
1&
b10000000000 3
b10000000000 2
b10000000000 1
b10000000000 0
1"
1/
b101 O
15
b100 M
1'
#241600
0'
#242400
b0 #
b0 -
0&
b0 3
b0 2
b0 1
b0 0
0"
0/
05
1.
04
b100 O
b1 N
b101 M
b101 K
1'
#243200
0'
#244000
0.
14
b100 K
b110 M
1'
#244800
0'
#245600
b111 M
1'
#246400
0'
#247200
b10000000000 #
b10000000000 -
1&
b10000000000 3
b10000000000 2
b10000000000 1
b10000000000 0
1"
1/
b101 O
15
b1000 M
1'
#248000
0'
#248800
b0 #
b0 -
0&
b0 3
b0 2
b0 1
b0 0
0"
0/
05
16
1.
04
b100 O
b10 N
b1001 M
b101 K
1'
#249600
0'
#250400
0.
14
b100 K
b1010 M
1'
#251200
0'
#252000
b1011 M
1'
#252800
0'
#253600
b10000000000 #
b10000000000 -
1&
b10000000000 3
b10000000000 2
b10000000000 1
b10000000000 0
1"
1/
b101 O
15
b1100 M
1'
#254400
0'
#255200
b0 #
b0 -
0&
b0 3
b0 2
b0 1
b0 0
0"
0/
05
16
1.
04
b100 O
b11 N
b1101 M
b101 K
1'
#256000
0'
#256800
0.
14
b100 K
b1110 M
1'
#257600
0'
#258400
b1111 M
1'
#259200
0'
#260000
b10000000000 #
b10000000000 -
1&
b10000000000 3
b10000000000 2
b10000000000 1
b10000000000 0
1"
1/
0$
b101 O
15
0!
b1010 P
b10000 M
1'
#260800
0'
#261600
0&
1$
b0 #
b0 -
b0 3
b0 2
b0 1
b0 0
05
0"
0/
1!
1.
16
04
b110 P
b110 O
b100 N
b10001 M
b101 K
1'
#262400
0'
#263200
06
14
0.
b110 K
b1 L
1'
#264000
0'
#264800
b10 L
1'
#265600
0'
#266400
b11 L
1'
#267200
0'
#268000
0$
0!
b111 O
b100 L
1'
#268800
0'
#269600
b10000000000 #
b10000000000 -
1&
b10000000000 3
b10000000000 2
b10000000000 1
b10000000000 0
1"
1/
0$
16
0!
04
1.
15
b111 O
b111 K
b0 L
1'
#270400
0'
#271200
b1010 P
b101 N
1'
#272000
0'
#272800
b110 N
1'
#273600
0'
#274400
1$
1!
b1000 P
b1000 O
b111 N
1'
#275200
0'
#276000
0&
b0 #
b0 -
b0 3
b0 2
b0 1
b0 0
06
0"
0/
14
0.
05
b1000 K
b1 L
b1000 N
1'
#276800
0'
#277600
b10 L
1'
#278400
0'
#279200
b11 L
1'
#280000
0'
#280800
0$
0!
b1001 O
b100 L
1'
#281600
0'
#282400
b10000000000 #
b10000000000 -
1&
b10000000000 3
b10000000000 2
b10000000000 1
b10000000000 0
1"
1/
0$
16
0!
04
1.
15
b1001 O
b1001 K
b0 L
1'
#283200
0'
#284000
b1010 P
b1001 N
1'
#284800
0'
#285600
b1010 N
1'
#286400
0'
#287200
1$
1!
b1010 O
b1011 N
1'
#288000
0'
#288800
0&
b0 #
b0 -
b0 3
b0 2
b0 1
b0 0
06
0"
0/
14
0.
05
b1010 K
b1 L
b1100 N
1'
#289600
0'
#290400
b10 L
1'
#291200
0'
#292000
b11 L
1'
#292800
0'
#293600
0$
0!
b1011 O
b100 L
1'
#294400
0'
#295200
b10000000000 #
b10000000000 -
1&
b10000000000 3
b10000000000 2
b10000000000 1
b10000000000 0
1"
1/
0$
16
0!
04
1.
15
b1011 O
b1011 K
b0 L
1'
#296000
0'
#296800
b1101 N
1'
#297600
0'
#298400
b1110 N
1'
#299200
0'
#300000
b1100 O
1%
b1111 N
1'
#300800
0'
#301600
0&
b0 #
b0 -
b0 3
b0 2
b0 1
b0 0
1$
06
0"
0/
1!
0.
05
0%
b11 P
b0 O
b1100 K
b0 M
b0 N
1'
#302400
0'
#303200
b11 O
b0 K
1'
#304000
0'
#304800
14
b11 K
b1 L
1'
#305600
0'
#306400
b10 L
1'
#307200
0'
#308000
b11 L
1'
#308800
0'
#309600
16
b1010 P
b100 O
b100 L
1'
#310400
0'
#311200
b100 P
b100 K
b0 L
b1 M
1'
#312000
0'
#312800
b10 M
1'
#313600
0'
#314400
b11 M
1'
#315200
0'
#316000
b10000000000 #
b10000000000 -
1&
b10000000000 3
b10000000000 2
b10000000000 1
b10000000000 0
1"
1/
b101 O
15
b100 M
1'
#316800
0'
#317600
b0 #
b0 -
0&
b0 3
b0 2
b0 1
b0 0
0"
0/
05
1.
04
b100 O
b101 K
b101 M
b1 N
1'
#318400
0'
#319200
0.
14
b110 M
b100 K
1'
#320000
0'
#320800
b111 M
1'
#321600
0'
#322400
b10000000000 #
b10000000000 -
1&
b10000000000 3
b10000000000 2
b10000000000 1
b10000000000 0
1"
1/
b101 O
15
b1000 M
1'
#323200
0'
#324000
b0 #
b0 -
0&
b0 3
b0 2
b0 1
b0 0
0"
0/
05
16
1.
04
b100 O
b101 K
b1001 M
b10 N
1'
#324800
0'
#325600
0.
14
b1010 M
b100 K
1'
#326400
0'
#327200
b1011 M
1'
#328000
0'
#328800
b10000000000 #
b10000000000 -
1&
b10000000000 3
b10000000000 2
b10000000000 1
b10000000000 0
1"
1/
b101 O
15
b1100 M
1'
#329600
0'
#330400
b0 #
b0 -
0&
b0 3
b0 2
b0 1
b0 0
0"
0/
05
1.
16
04
b100 O
b101 K
b1101 M
b11 N
1'
#331200
0'
#332000
0.
14
b1110 M
b100 K
1'
#332800
0'
#333600
b1111 M
1'
#334400
0'
#335200
b10000000000 #
b10000000000 -
1&
b10000000000 3
b10000000000 2
b10000000000 1
b10000000000 0
1"
1/
0$
b101 O
15
0!
b1010 P
b10000 M
1'
#336000
0'
#336800
0&
1$
b0 #
b0 -
b0 3
b0 2
b0 1
b0 0
05
0"
0/
1!
1.
16
04
b110 P
b110 O
b101 K
b10001 M
b100 N
1'
#337600
0'
#338400
06
14
0.
b1 L
b110 K
1'
#339200
0'
#340000
b10 L
1'
#340800
0'
#341600
b11 L
1'
#342400
0'
#343200
0$
0!
b111 O
b100 L
1'
#344000
0'
#344800
b10000000000 #
b10000000000 -
1&
b10000000000 3
b10000000000 2
b10000000000 1
b10000000000 0
1"
1/
0$
16
0!
04
1.
15
b111 O
b0 L
b111 K
1'
#345600
0'
#346400
b1010 P
b101 N
1'
#347200
0'
#348000
b110 N
1'
#348800
0'
#349600
1$
1!
b1000 P
b1000 O
b111 N
1'
#350400
0'
#351200
0&
b0 #
b0 -
b0 3
b0 2
b0 1
b0 0
06
0"
0/
14
0.
05
b1000 N
b1 L
b1000 K
1'
#352000
0'
#352800
b10 L
1'
#353600
0'
#354400
b11 L
1'
#355200
0'
#356000
0$
0!
b1001 O
b100 L
1'
#356800
0'
#357600
b10000000000 #
b10000000000 -
1&
b10000000000 3
b10000000000 2
b10000000000 1
b10000000000 0
1"
1/
0$
16
0!
04
1.
15
b1001 O
b0 L
b1001 K
1'
#358400
0'
#359200
b1010 P
b1001 N
1'
#360000
0'
#360800
b1010 N
1'
#361600
0'
#362400
1$
1!
b1010 O
b1011 N
1'
#363200
0'
#364000
0&
b0 #
b0 -
b0 3
b0 2
b0 1
b0 0
06
0"
0/
14
0.
05
b1100 N
b1 L
b1010 K
1'
#364800
0'
#365600
b10 L
1'
#366400
0'
#367200
b11 L
1'
#368000
0'
#368800
0$
0!
b1011 O
b100 L
1'
#369600
0'
#370400
b10000000000 #
b10000000000 -
1&
b10000000000 3
b10000000000 2
b10000000000 1
b10000000000 0
1"
1/
0$
16
0!
04
1.
15
b1011 O
b0 L
b1011 K
1'
#371200
0'
#372000
b1101 N
1'
#372800
0'
#373600
b1110 N
1'
#374400
0'
#375200
b1100 O
1%
b1111 N
1'
#376000
0'
#376800
0&
b0 #
b0 -
1$
b0 3
b0 2
b0 1
b0 0
06
0"
0/
1!
0%
0.
05
b11 P
b0 O
b0 N
b0 M
b1100 K
1'
#377600
0'
#378400
b11 O
b0 K
1'
#379200
0'
#380000
14
b1 L
b11 K
1'
#380800
0'
#381600
b10 L
1'
#382400
0'
#383200
b11 L
1'
#384000
0'
#384800
16
b1010 P
b100 O
b100 L
1'
#385600
0'
#386400
b100 P
b1 M
b0 L
b100 K
1'
#387200
0'
#388000
b10 M
1'
#388800
0'
#389600
b11 M
1'
#390400
0'
#391200
b10000000000 #
b10000000000 -
1&
b10000000000 3
b10000000000 2
b10000000000 1
b10000000000 0
1"
1/
b101 O
15
b100 M
1'
#392000
0'
#392800
b0 #
b0 -
0&
b0 3
b0 2
b0 1
b0 0
0"
0/
05
1.
04
b100 O
b1 N
b101 M
b101 K
1'
#393600
0'
#394400
0.
14
b100 K
b110 M
1'
#395200
0'
#396000
b111 M
1'
#396800
0'
#397600
b10000000000 #
b10000000000 -
1&
b10000000000 3
b10000000000 2
b10000000000 1
b10000000000 0
1"
1/
b101 O
15
b1000 M
1'
#398400
0'
#399200
b0 #
b0 -
0&
b0 3
b0 2
b0 1
b0 0
0"
0/
05
16
1.
04
b100 O
b10 N
b1001 M
b101 K
1'
#400000
0'
#400800
0.
14
b100 K
b1010 M
1'
#401600
0'
#402400
b1011 M
1'
#403200
0'
#404000
b10000000000 #
b10000000000 -
1&
b10000000000 3
b10000000000 2
b10000000000 1
b10000000000 0
1"
1/
b101 O
15
b1100 M
1'
#404800
0'
#405600
b0 #
b0 -
0&
b0 3
b0 2
b0 1
b0 0
0"
0/
05
16
1.
04
b100 O
b11 N
b1101 M
b101 K
1'
#406400
0'
#407200
0.
14
b100 K
b1110 M
1'
#408000
0'
#408800
b1111 M
1'
#409600
0'
#410400
b10000000000 #
b10000000000 -
1&
b10000000000 3
b10000000000 2
b10000000000 1
b10000000000 0
1"
1/
0$
b101 O
15
0!
b1010 P
b10000 M
1'
#411200
0'
#412000
0&
1$
b0 #
b0 -
b0 3
b0 2
b0 1
b0 0
05
0"
0/
1!
1.
16
04
b110 P
b110 O
b100 N
b10001 M
b101 K
1'
#412800
0'
#413600
06
14
0.
b110 K
b1 L
1'
#414400
0'
#415200
b10 L
1'
#416000
0'
#416800
b11 L
1'
#417600
0'
#418400
0$
0!
b111 O
b100 L
1'
#419200
0'
#420000
b10000000000 #
b10000000000 -
1&
b10000000000 3
b10000000000 2
b10000000000 1
b10000000000 0
1"
1/
0$
16
0!
04
1.
15
b111 O
b111 K
b0 L
1'
#420800
0'
#421600
b1010 P
b101 N
1'
#422400
0'
#423200
b110 N
1'
#424000
0'
#424800
1$
1!
b1000 P
b1000 O
b111 N
1'
#425600
0'
#426400
0&
b0 #
b0 -
b0 3
b0 2
b0 1
b0 0
06
0"
0/
14
0.
05
b1000 K
b1 L
b1000 N
1'
#427200
0'
#428000
b10 L
1'
#428800
0'
#429600
b11 L
1'
#430400
0'
#431200
0$
0!
b1001 O
b100 L
1'
#432000
0'
#432800
b10000000000 #
b10000000000 -
1&
b10000000000 3
b10000000000 2
b10000000000 1
b10000000000 0
1"
1/
0$
16
0!
04
1.
15
b1001 O
b1001 K
b0 L
1'
#433600
0'
#434400
b1010 P
b1001 N
1'
#435200
0'
#436000
b1010 N
1'
#436800
0'
#437600
1$
1!
b1010 O
b1011 N
1'
#438400
0'
#439200
0&
b0 #
b0 -
b0 3
b0 2
b0 1
b0 0
06
0"
0/
14
0.
05
b1010 K
b1 L
b1100 N
1'
#440000
0'
#440800
b10 L
1'
#441600
0'
#442400
b11 L
1'
#443200
0'
#444000
0$
0!
b1011 O
b100 L
1'
#444800
0'
#445600
b10000000000 #
b10000000000 -
1&
b10000000000 3
b10000000000 2
b10000000000 1
b10000000000 0
1"
1/
0$
16
0!
04
1.
15
b1011 O
b1011 K
b0 L
1'
#446400
0'
#447200
b1101 N
1'
#448000
0'
#448800
b1110 N
1'
#449600
0'
#450400
b1100 O
1%
b1111 N
1'
#451200
0'
#452000
0&
b0 #
b0 -
b0 3
b0 2
b0 1
b0 0
1$
06
0"
0/
1!
0.
05
0%
b11 P
b0 O
b1100 K
b0 M
b0 N
1'
#452800
0'
