fsic-sim/fsic_fpga/vivado/jupyter_notebook/la_app/output_new.vcd
$date today $end
$version Python VCD Converter $end
$timescale 1 ns $end
$scope module top $end
$var wire 1  CLK CLK $end
$var wire 1 SPI_CLK SPI_CLK $end
$var wire 1 SPI_DIN SPI_DIN $end
$var wire 1 SPI_DOUT SPI_DOUT $end
$var wire 10 CH3 CH3 $end
$var wire 8 CH4 CH4 $end
$var wire 8 CH8 CH8 $end
$var wire 10 CH16 CH16 $end
$upscope $end
$enddefinitions $end
$dumpvars
b0 CLK
b0 SPI_CLK
b0 SPI_DIN
b0 SPI_DOUT
b0000000000 CH3
b00000000 CH4
b00000000 CH8
b0000000000 CH16
$end
#0
b1 CLK
#0.0
b0 CLK
#50000.0
b1 CLK
#100000.0
b0 CLK
#150000.0
b1 CLK
#200000.0
b0 CLK
#250000.0
b1 CLK
#300000.0
b0 CLK
#350000.0
b1 CLK
#400000.0
b0 CLK
#450000.0
b1 CLK
#500000.0
b0 CLK
#550000.0
b1 CLK
#600000.0
b0 CLK
#650000.0
b1 CLK
#700000.0
b0 CLK
#750000.0
b1 CLK
#800000.0
b0 CLK
#850000.0
b1 CLK
#900000.0
b0 CLK
#950000.0
b1 CLK
#1000000.0
b0 CLK
#1050000.0
b1 CLK
#1100000.0
b0 CLK
#1150000.0
b1 CLK
#1200000.0
b0 CLK
#1250000.0
b1 CLK
#1300000.0
b0 CLK
#1350000.0
b1 CLK
#1400000.0
b0 CLK
#1450000.0
b1 CLK
#1500000.0
b0 CLK
#1550000.0
b1 CLK
#1600000.0
b0 CLK
#1650000.0
b1 CLK
#1700000.0
b0 CLK
#1750000.0
b1 CLK
#1800000.0
b0 CLK
#1850000.0
b1 CLK
#1900000.0
b0 CLK
#1950000.0
b1 CLK
#2000000.0
b0 CLK
#2050000.0
b1 CLK
#2100000.0
b0 CLK
#2150000.0
b1 CLK
#2200000.0
b0 CLK
#2250000.0
b1 CLK
#2300000.0
b0 CLK
#2350000.0
b1 CLK
#2400000.0
b0 CLK
#2450000.0
b1 CLK
#2500000.0
b0 CLK
#2550000.0
b1 CLK
#2600000.0
b0 CLK
#2650000.0
b1 CLK
#2700000.0
b0 CLK
#2750000.0
b1 CLK
#2800000.0
b0 CLK
#2850000.0
b1 CLK
#2900000.0
b0 CLK
#2950000.0
b1 CLK
#3000000.0
b0 CLK
#3050000.0
b1 CLK
#3100000.0
b0 CLK
#3150000.0
b1 CLK
#3200000.0
b0 CLK
#3250000.0
b1 CLK
#3300000.0
b0 CLK
#3350000.0
b1 CLK
#3400000.0
b0 CLK
#3450000.0
b1 CLK
#3500000.0
b0 CLK
#3550000.0
b1 CLK
#3600000.0
b0 CLK
#3650000.0
b1 CLK
#3700000.0
b0 CLK
#3750000.0
b1 CLK
#3800000.0
b0 CLK
#3850000.0
b1 CLK
#3900000.0
b0 CLK
#3950000.0
b1 CLK
#4000000.0
b0 CLK
#4050000.0
b1 CLK
#4100000.0
b0 CLK
#4150000.0
b1 CLK
#4200000.0
b0 CLK
#4250000.0
b1 CLK
#4300000.0
b0 CLK
#4350000.0
b1 CLK
#4400000.0
b0 CLK
#4450000.0
b1 CLK
#4500000.0
b0 CLK
#4550000.0
b1 CLK
#4600000.0
b0 CLK
#4650000.0
b1 CLK
#4700000.0
b0 CLK
#4750000.0
b1 CLK
#4800000.0
b0 CLK
#4850000.0
b1 CLK
#4900000.0
b0 CLK
#4950000.0
b1 CLK
#5000000.0
b0 CLK
#5050000.0
b1 CLK
#5100000.0
b0 CLK
#5150000.0
b1 CLK
#5200000.0
b0 CLK
#5250000.0
b1 CLK
#5300000.0
b0 CLK
#5350000.0
b1 CLK
#5400000.0
b0 CLK
#5450000.0
b1 CLK
#5500000.0
b0 CLK
#5550000.0
b1 CLK
#5600000.0
b0 CLK
#5650000.0
b1 CLK
#5700000.0
b0 CLK
#5750000.0
b1 CLK
#5800000.0
b0 CLK
#5850000.0
b1 CLK
#5900000.0
b0 CLK
#5950000.0
b1 CLK
#6000000.0
b0 CLK
#6050000.0
b1 CLK
#6100000.0
b0 CLK
#6150000.0
b1 CLK
#6200000.0
b0 CLK
#6250000.0
b1 CLK
#6300000.0
b0 CLK
#6350000.0
b1 CLK
#6400000.0
b0 CLK
#6450000.0
b1 CLK
#6500000.0
b0 CLK
#6550000.0
b1 CLK
#6600000.0
b0 CLK
#6650000.0
b1 CLK
#6700000.0
b0 CLK
#6750000.0
b1 CLK
#6800000.0
b0 CLK
#6850000.0
b1 CLK
#6900000.0
b0 CLK
#6950000.0
b1 CLK
#7000000.0
b0 CLK
#7050000.0
b1 CLK
#7100000.0
b0 CLK
#7150000.0
b1 CLK
#7200000.0
b0 CLK
#7250000.0
b1 CLK
#7300000.0
b0 CLK
#7350000.0
b1 CLK
#7400000.0
b0 CLK
#7450000.0
b1 CLK
#7500000.0
b0 CLK
#7550000.0
b1 CLK
#7600000.0
b0 CLK
#7650000.0
b1 CLK
#7700000.0
b0 CLK
#7750000.0
b1 CLK
#7800000.0
b0 CLK
#7850000.0
b1 CLK
#7900000.0
b0 CLK
#7950000.0
b1 CLK
#8000000.0
b0 CLK
#8050000.0
b1 CLK
#8100000.0
b0 CLK
#8150000.0
b1 CLK
#8200000.0
b0 CLK
#8250000.0
b1 CLK
#8300000.0
b0 CLK
#8350000.0
b1 CLK
#8400000.0
b0 CLK
#8450000.0
b1 CLK
#8500000.0
b0 CLK
#8550000.0
b1 CLK
#8600000.0
b0 CLK
#8650000.0
b1 CLK
#8700000.0
b0 CLK
#8750000.0
b1 CLK
#8800000.0
b0 CLK
#8850000.0
b1 CLK
#8900000.0
b0 CLK
#8950000.0
b1 CLK
#9000000.0
b0 CLK
#9050000.0
b1 CLK
#9100000.0
b0 CLK
#9150000.0
b1 CLK
#9200000.0
b0 CLK
#9250000.0
b1 CLK
#9300000.0
b0 CLK
#9350000.0
b1 CLK
#9400000.0
b0 CLK
#9450000.0
b1 CLK
#9500000.0
b0 CLK
#9550000.0
b1 CLK
#9600000.0
b0 CLK
#9650000.0
b1 CLK
#9700000.0
b0 CLK
#9750000.0
b1 CLK
#9800000.0
b0 CLK
#9850000.0
b1 CLK
#9900000.0
b0 CLK
#9950000.0
b1 CLK
#10000000.0
b0 CLK
#10050000.0
b1 CLK
#10100000.0
b0 CLK
#10150000.0
b1 CLK
#10200000.0
b0 CLK
#10250000.0
b1 CLK
#10300000.0
b0 CLK
#10350000.0
b1 CLK
#10400000.0
b0 CLK
#10450000.0
b1 CLK
#10500000.0
b0 CLK
#10550000.0
b1 CLK
#10600000.0
b0 CLK
#10650000.0
b1 CLK
#10700000.0
b0 CLK
#10750000.0
b1 CLK
#10800000.0
b0 CLK
#10850000.0
b1 CLK
#10900000.0
b0 CLK
#10950000.0
b1 CLK
#11000000.0
b0 CLK
#11050000.0
b1 CLK
#11100000.0
b0 CLK
#11150000.0
b1 CLK
#11200000.0
b0 CLK
#11250000.0
b1 CLK
#11300000.0
b0 CLK
#11350000.0
b1 CLK
#11400000.0
b0 CLK
#11450000.0
b1 CLK
#11500000.0
b0 CLK
#11550000.0
b1 CLK
#11600000.0
b0 CLK
#11650000.0
b1 CLK
#11700000.0
b0 CLK
#11750000.0
b1 CLK
#11800000.0
b0 CLK
#11850000.0
b1 CLK
#11900000.0
b0 CLK
#11950000.0
b1 CLK
#12000000.0
b0 CLK
#12050000.0
b1 CLK
#12100000.0
b0 CLK
#12150000.0
b1 CLK
#12200000.0
b0 CLK
#12250000.0
b1 CLK
#12300000.0
b0 CLK
#12350000.0
b1 CLK
#12400000.0
b0 CLK
#12450000.0
b1 CLK
#12500000.0
b0 CLK
#12550000.0
b1 CLK
#12600000.0
b0 CLK
#12650000.0
b1 CLK
#12700000.0
b0 CLK
#12750000.0
b1 CLK
#12800000.0
b0 CLK
#12850000.0
b1 CLK
#12900000.0
b0 CLK
#12950000.0
b1 CLK
#13000000.0
b0 CLK
#13050000.0
b1 CLK
#13100000.0
b0 CLK
#13150000.0
b1 CLK
#13200000.0
b0 CLK
#13250000.0
b1 CLK
#13300000.0
b0 CLK
#13350000.0
b1 CLK
#13400000.0
b0 CLK
#13450000.0
b1 CLK
#13500000.0
b0 CLK
#13550000.0
b1 CLK
#13600000.0
b0 CLK
#13650000.0
b1 CLK
#13700000.0
b0 CLK
#13750000.0
b1 CLK
#13800000.0
b0 CLK
#13850000.0
b1 CLK
#13900000.0
b0 CLK
#13950000.0
b1 CLK
b1 SPI_CLK
b0 SPI_DIN
b0 SPI_DOUT
b0 CH3
b0 CH4
b0 CH8
b0 CH16
#14000000.0
b0 CLK
#14050000.0
b1 CLK
#14100000.0
b0 CLK
#14150000.0
b1 CLK
#14200000.0
b0 CLK
#14250000.0
b1 CLK
#14300000.0
b0 CLK
#14350000.0
b1 CLK
#14400000.0
b0 CLK
#14450000.0
b1 CLK
#14500000.0
b0 CLK
#14550000.0
b1 CLK
#14600000.0
b0 CLK
#14650000.0
b1 CLK
#14700000.0
b0 CLK
#14750000.0
b1 CLK
#14800000.0
b0 CLK
#14850000.0
b1 CLK
#14900000.0
b0 CLK
#14950000.0
b1 CLK
#15000000.0
b0 CLK
#15050000.0
b1 CLK
#15100000.0
b0 CLK
#15150000.0
b1 CLK
#15200000.0
b0 CLK
#15250000.0
b1 CLK
#15300000.0
b0 CLK
#15350000.0
b1 CLK
#15400000.0
b0 CLK
#15450000.0
b1 CLK
#15500000.0
b0 CLK
#15550000.0
b1 CLK
#15600000.0
b0 CLK
#15650000.0
b1 CLK
#15700000.0
b0 CLK
#15750000.0
b1 CLK
#15800000.0
b0 CLK
#15850000.0
b1 CLK
#15900000.0
b0 CLK
#15950000.0
b1 CLK
#16000000.0
b0 CLK
#16050000.0
b1 CLK
#16100000.0
b0 CLK
#16150000.0
b1 CLK
#16200000.0
b0 CLK
#16250000.0
b1 CLK
#16300000.0
b0 CLK
#16350000.0
b1 CLK
#16400000.0
b0 CLK
#16450000.0
b1 CLK
#16500000.0
b0 CLK
#16550000.0
b1 CLK
#16600000.0
b0 CLK
#16650000.0
b1 CLK
#16700000.0
b0 CLK
#16750000.0
b1 CLK
#16800000.0
b0 CLK
#16850000.0
b1 CLK
#16900000.0
b0 CLK
#16950000.0
b1 CLK
#17000000.0
b0 CLK
#17050000.0
b1 CLK
#17100000.0
b0 CLK
#17150000.0
b1 CLK
#17200000.0
b0 CLK
#17250000.0
b1 CLK
#17300000.0
b0 CLK
#17350000.0
b1 CLK
#17400000.0
b0 CLK
#17450000.0
b1 CLK
#17500000.0
b0 CLK
#17550000.0
b1 CLK
#17600000.0
b0 CLK
#17650000.0
b1 CLK
#17700000.0
b0 CLK
#17750000.0
b1 CLK
#17800000.0
b0 CLK
#17850000.0
b1 CLK
#17900000.0
b0 CLK
#17950000.0
b1 CLK
#18000000.0
b0 CLK
#18050000.0
b1 CLK
#18100000.0
b0 CLK
#18150000.0
b1 CLK
#18200000.0
b0 CLK
#18250000.0
b1 CLK
#18300000.0
b0 CLK
#18350000.0
b1 CLK
#18400000.0
b0 CLK
#18450000.0
b1 CLK
#18500000.0
b0 CLK
#18550000.0
b1 CLK
#18600000.0
b0 CLK
#18650000.0
b1 CLK
#18700000.0
b0 CLK
#18750000.0
b1 CLK
#18800000.0
b0 CLK
#18850000.0
b1 CLK
#18900000.0
b0 CLK
#18950000.0
b1 CLK
#19000000.0
b0 CLK
#19050000.0
b1 CLK
#19100000.0
b0 CLK
#19150000.0
b1 CLK
#19200000.0
b0 CLK
#19250000.0
b1 CLK
#19300000.0
b0 CLK
#19350000.0
b1 CLK
#19400000.0
b0 CLK
#19450000.0
b1 CLK
#19500000.0
b0 CLK
#19550000.0
b1 CLK
#19600000.0
b0 CLK
#19650000.0
b1 CLK
#19700000.0
b0 CLK
#19750000.0
b1 CLK
#19800000.0
b0 CLK
#19850000.0
b1 CLK
#19900000.0
b0 CLK
#19950000.0
b1 CLK
#20000000.0
b0 CLK
#20050000.0
b1 CLK
#20100000.0
b0 CLK
#20150000.0
b1 CLK
#20200000.0
b0 CLK
#20250000.0
b1 CLK
b0 SPI_CLK
b1 SPI_DIN
b0 SPI_DOUT
b0 CH3
b0 CH4
b0 CH8
b0 CH16
#20300000.0
b0 CLK
#20350000.0
b1 CLK
#20400000.0
b0 CLK
#20450000.0
b1 CLK
#20500000.0
b0 CLK
#20550000.0
b1 CLK
#20600000.0
b0 CLK
#20650000.0
b1 CLK
#20700000.0
b0 CLK
#20750000.0
b1 CLK
#20800000.0
b0 CLK
#20850000.0
b1 CLK
#20900000.0
b0 CLK
#20950000.0
b1 CLK
#21000000.0
b0 CLK
#21050000.0
b1 CLK
#21100000.0
b0 CLK
#21150000.0
b1 CLK
b1 SPI_CLK
b1 SPI_DIN
b0 SPI_DOUT
b0 CH3
b0 CH4
b0 CH8
b0 CH16
#21200000.0
b0 CLK
#21250000.0
b1 CLK
#21300000.0
b0 CLK
#21350000.0
b1 CLK
#21400000.0
b0 CLK
#21450000.0
b1 CLK
#21500000.0
b0 CLK
#21550000.0
b1 CLK
#21600000.0
b0 CLK
#21650000.0
b1 CLK
#21700000.0
b0 CLK
#21750000.0
b1 CLK
#21800000.0
b0 CLK
#21850000.0
b1 CLK
#21900000.0
b0 CLK
#21950000.0
b1 CLK
#22000000.0
b0 CLK
#22050000.0
b1 CLK
#22100000.0
b0 CLK
#22150000.0
b1 CLK
#22200000.0
b0 CLK
#22250000.0
b1 CLK
#22300000.0
b0 CLK
#22350000.0
b1 CLK
#22400000.0
b0 CLK
#22450000.0
b1 CLK
#22500000.0
b0 CLK
#22550000.0
b1 CLK
#22600000.0
b0 CLK
#22650000.0
b1 CLK
#22700000.0
b0 CLK
#22750000.0
b1 CLK
#22800000.0
b0 CLK
#22850000.0
b1 CLK
#22900000.0
b0 CLK
#22950000.0
b1 CLK
#23000000.0
b0 CLK
#23050000.0
b1 CLK
#23100000.0
b0 CLK
#23150000.0
b1 CLK
#23200000.0
b0 CLK
#23250000.0
b1 CLK
#23300000.0
b0 CLK
#23350000.0
b1 CLK
#23400000.0
b0 CLK
#23450000.0
b1 CLK
#23500000.0
b0 CLK
#23550000.0
b1 CLK
#23600000.0
b0 CLK
#23650000.0
b1 CLK
#23700000.0
b0 CLK
#23750000.0
b1 CLK
#23800000.0
b0 CLK
#23850000.0
b1 CLK
#23900000.0
b0 CLK
#23950000.0
b1 CLK
#24000000.0
b0 CLK
#24050000.0
b1 CLK
#24100000.0
b0 CLK
#24150000.0
b1 CLK
#24200000.0
b0 CLK
#24250000.0
b1 CLK
#24300000.0
b0 CLK
#24350000.0
b1 CLK
#24400000.0
b0 CLK
#24450000.0
b1 CLK
#24500000.0
b0 CLK
#24550000.0
b1 CLK
#24600000.0
b0 CLK
#24650000.0
b1 CLK
b0 SPI_CLK
b0 SPI_DIN
b1 SPI_DOUT
b0 CH3
b0 CH4
b0 CH8
b0 CH16
#24700000.0
b0 CLK
#24750000.0
b1 CLK
#24800000.0
b0 CLK
#24850000.0
b1 CLK
#24900000.0
b0 CLK
#24950000.0
b1 CLK
#25000000.0
b0 CLK
#25050000.0
b1 CLK
#25100000.0
b0 CLK
#25150000.0
b1 CLK
#25200000.0
b0 CLK
#25250000.0
b1 CLK
#25300000.0
b0 CLK
#25350000.0
b1 CLK
#25400000.0
b0 CLK
#25450000.0
b1 CLK
#25500000.0
b0 CLK
#25550000.0
b1 CLK
#25600000.0
b0 CLK
#25650000.0
b1 CLK
#25700000.0
b0 CLK
#25750000.0
b1 CLK
#25800000.0
b0 CLK
#25850000.0
b1 CLK
#25900000.0
b0 CLK
#25950000.0
b1 CLK
b1 SPI_CLK
b0 SPI_DIN
b1 SPI_DOUT
b0 CH3
b0 CH4
b0 CH8
b0 CH16
#26000000.0
b0 CLK
#26050000.0
b1 CLK
#26100000.0
b0 CLK
#26150000.0
b1 CLK
#26200000.0
b0 CLK
#26250000.0
b1 CLK
#26300000.0
b0 CLK
#26350000.0
b1 CLK
#26400000.0
b0 CLK
#26450000.0
b1 CLK
#26500000.0
b0 CLK
#26550000.0
b1 CLK
#26600000.0
b0 CLK
#26650000.0
b1 CLK
#26700000.0
b0 CLK
#26750000.0
b1 CLK
#26800000.0
b0 CLK
#26850000.0
b1 CLK
#26900000.0
b0 CLK
#26950000.0
b1 CLK
#27000000.0
b0 CLK
#27050000.0
b1 CLK
#27100000.0
b0 CLK
#27150000.0
b1 CLK
#27200000.0
b0 CLK
#27250000.0
b1 CLK
b0 SPI_CLK
b1 SPI_DIN
b1 SPI_DOUT
b0 CH3
b0 CH4
b0 CH8
b0 CH16
#27300000.0
b0 CLK
#27350000.0
b1 CLK
#27400000.0
b0 CLK
#27450000.0
b1 CLK
#27500000.0
b0 CLK
#27550000.0
b1 CLK
#27600000.0
b0 CLK
#27650000.0
b1 CLK
#27700000.0
b0 CLK
#27750000.0
b1 CLK
#27800000.0
b0 CLK
#27850000.0
b1 CLK
#27900000.0
b0 CLK
#27950000.0
b1 CLK
#28000000.0
b0 CLK
#28050000.0
b1 CLK
#28100000.0
b0 CLK
#28150000.0
b1 CLK
#28200000.0
b0 CLK
#28250000.0
b1 CLK
#28300000.0
b0 CLK
#28350000.0
b1 CLK
#28400000.0
b0 CLK
#28450000.0
b1 CLK
#28500000.0
b0 CLK
#28550000.0
b1 CLK
#28600000.0
b0 CLK
#28650000.0
b1 CLK
#28700000.0
b0 CLK
#28750000.0
b1 CLK
#28800000.0
b0 CLK
#28850000.0
b1 CLK
#28900000.0
b0 CLK
#28950000.0
b1 CLK
#29000000.0
b0 CLK
#29050000.0
b1 CLK
#29100000.0
b0 CLK
#29150000.0
b1 CLK
#29200000.0
b0 CLK
#29250000.0
b1 CLK
#29300000.0
b0 CLK
#29350000.0
b1 CLK
#29400000.0
b0 CLK
#29450000.0
b1 CLK
#29500000.0
b0 CLK
#29550000.0
b1 CLK
#29600000.0
b0 CLK
#29650000.0
b1 CLK
#29700000.0
b0 CLK
#29750000.0
b1 CLK
#29800000.0
b0 CLK
#29850000.0
b1 CLK
#29900000.0
b0 CLK
#29950000.0
b1 CLK
#30000000.0
b0 CLK
#30050000.0
b1 CLK
#30100000.0
b0 CLK
#30150000.0
b1 CLK
#30200000.0
b0 CLK
#30250000.0
b1 CLK
#30300000.0
b0 CLK
#30350000.0
b1 CLK
#30400000.0
b0 CLK
#30450000.0
b1 CLK
#30500000.0
b0 CLK
#30550000.0
b1 CLK
#30600000.0
b0 CLK
#30650000.0
b1 CLK
#30700000.0
b0 CLK
#30750000.0
b1 CLK
#30800000.0
b0 CLK
#30850000.0
b1 CLK
#30900000.0
b0 CLK
#30950000.0
b1 CLK
b1 SPI_CLK
b1 SPI_DIN
b1 SPI_DOUT
b0 CH3
b0 CH4
b0 CH8
b0 CH16
#31000000.0
b0 CLK
#31050000.0
b1 CLK
#31100000.0
b0 CLK
#31150000.0
b1 CLK
#31200000.0
b0 CLK
#31250000.0
b1 CLK
#31300000.0
b0 CLK
#31350000.0
b1 CLK
#31400000.0
b0 CLK
#31450000.0
b1 CLK
#31500000.0
b0 CLK
#31550000.0
b1 CLK
#31600000.0
b0 CLK
#31650000.0
b1 CLK
#31700000.0
b0 CLK
#31750000.0
b1 CLK
#31800000.0
b0 CLK
#31850000.0
b1 CLK
#31900000.0
b0 CLK
#31950000.0
b1 CLK
#32000000.0
b0 CLK
#32050000.0
b1 CLK
#32100000.0
b0 CLK
#32150000.0
b1 CLK
#32200000.0
b0 CLK
#32250000.0
b1 CLK
#32300000.0
b0 CLK
#32350000.0
b1 CLK
#32400000.0
b0 CLK
#32450000.0
b1 CLK
#32500000.0
b0 CLK
#32550000.0
b1 CLK
#32600000.0
b0 CLK
#32650000.0
b1 CLK
#32700000.0
b0 CLK
#32750000.0
b1 CLK
b0 SPI_CLK
b0 SPI_DIN
b0 SPI_DOUT
b1 CH3
b0 CH4
b0 CH8
b0 CH16
#32800000.0
b0 CLK
#32850000.0
b1 CLK
#32900000.0
b0 CLK
#32950000.0
b1 CLK
#33000000.0
b0 CLK
#33050000.0
b1 CLK
#33100000.0
b0 CLK
#33150000.0
b1 CLK
#33200000.0
b0 CLK
#33250000.0
b1 CLK
#33300000.0
b0 CLK
#33350000.0
b1 CLK
#33400000.0
b0 CLK
#33450000.0
b1 CLK
#33500000.0
b0 CLK
#33550000.0
b1 CLK
#33600000.0
b0 CLK
#33650000.0
b1 CLK
#33700000.0
b0 CLK
#33750000.0
b1 CLK
#33800000.0
b0 CLK
#33850000.0
b1 CLK
#33900000.0
b0 CLK
#33950000.0
b1 CLK
#34000000.0
b0 CLK
#34050000.0
b1 CLK
#34100000.0
b0 CLK
#34150000.0
b1 CLK
#34200000.0
b0 CLK
#34250000.0
b1 CLK
#34300000.0
b0 CLK
#34350000.0
b1 CLK
#34400000.0
b0 CLK
#34450000.0
b1 CLK
#34500000.0
b0 CLK
#34550000.0
b1 CLK
#34600000.0
b0 CLK
#34650000.0
b1 CLK
#34700000.0
b0 CLK
#34750000.0
b1 CLK
#34800000.0
b0 CLK
#34850000.0
b1 CLK
#34900000.0
b0 CLK
#34950000.0
b1 CLK
#35000000.0
b0 CLK
#35050000.0
b1 CLK
#35100000.0
b0 CLK
#35150000.0
b1 CLK
#35200000.0
b0 CLK
#35250000.0
b1 CLK
#35300000.0
b0 CLK
#35350000.0
b1 CLK
#35400000.0
b0 CLK
#35450000.0
b1 CLK
#35500000.0
b0 CLK
#35550000.0
b1 CLK
#35600000.0
b0 CLK
#35650000.0
b1 CLK
#35700000.0
b0 CLK
#35750000.0
b1 CLK
#35800000.0
b0 CLK
#35850000.0
b1 CLK
#35900000.0
b0 CLK
#35950000.0
b1 CLK
#36000000.0
b0 CLK
#36050000.0
b1 CLK
#36100000.0
b0 CLK
#36150000.0
b1 CLK
#36200000.0
b0 CLK
#36250000.0
b1 CLK
#36300000.0
b0 CLK
#36350000.0
b1 CLK
#36400000.0
b0 CLK
#36450000.0
b1 CLK
#36500000.0
b0 CLK
#36550000.0
b1 CLK
#36600000.0
b0 CLK
#36650000.0
b1 CLK
#36700000.0
b0 CLK
#36750000.0
b1 CLK
#36800000.0
b0 CLK
#36850000.0
b1 CLK
#36900000.0
b0 CLK
#36950000.0
b1 CLK
#37000000.0
b0 CLK
#37050000.0
b1 CLK
#37100000.0
b0 CLK
#37150000.0
b1 CLK
#37200000.0
b0 CLK
#37250000.0
b1 CLK
#37300000.0
b0 CLK
#37350000.0
b1 CLK
#37400000.0
b0 CLK
#37450000.0
b1 CLK
#37500000.0
b0 CLK
#37550000.0
b1 CLK
#37600000.0
b0 CLK
#37650000.0
b1 CLK
#37700000.0
b0 CLK
#37750000.0
b1 CLK
#37800000.0
b0 CLK
#37850000.0
b1 CLK
#37900000.0
b0 CLK
#37950000.0
b1 CLK
#38000000.0
b0 CLK
#38050000.0
b1 CLK
#38100000.0
b0 CLK
#38150000.0
b1 CLK
#38200000.0
b0 CLK
#38250000.0
b1 CLK
#38300000.0
b0 CLK
#38350000.0
b1 CLK
#38400000.0
b0 CLK
#38450000.0
b1 CLK
#38500000.0
b0 CLK
#38550000.0
b1 CLK
#38600000.0
b0 CLK
#38650000.0
b1 CLK
#38700000.0
b0 CLK
#38750000.0
b1 CLK
#38800000.0
b0 CLK
#38850000.0
b1 CLK
#38900000.0
b0 CLK
#38950000.0
b1 CLK
#39000000.0
b0 CLK
#39050000.0
b1 CLK
b1 SPI_CLK
b0 SPI_DIN
b0 SPI_DOUT
b1 CH3
b0 CH4
b0 CH8
b0 CH16
#39100000.0
b0 CLK
#39150000.0
b1 CLK
#39200000.0
b0 CLK
#39250000.0
b1 CLK
#39300000.0
b0 CLK
#39350000.0
b1 CLK
#39400000.0
b0 CLK
#39450000.0
b1 CLK
#39500000.0
b0 CLK
#39550000.0
b1 CLK
#39600000.0
b0 CLK
#39650000.0
b1 CLK
#39700000.0
b0 CLK
#39750000.0
b1 CLK
#39800000.0
b0 CLK
#39850000.0
b1 CLK
#39900000.0
b0 CLK
#39950000.0
b1 CLK
#40000000.0
b0 CLK
#40050000.0
b1 CLK
#40100000.0
b0 CLK
#40150000.0
b1 CLK
#40200000.0
b0 CLK
#40250000.0
b1 CLK
#40300000.0
b0 CLK
#40350000.0
b1 CLK
b0 SPI_CLK
b1 SPI_DIN
b0 SPI_DOUT
b1 CH3
b0 CH4
b0 CH8
b0 CH16
#40400000.0
b0 CLK
#40450000.0
b1 CLK
#40500000.0
b0 CLK
#40550000.0
b1 CLK
#40600000.0
b0 CLK
#40650000.0
b1 CLK
#40700000.0
b0 CLK
#40750000.0
b1 CLK
#40800000.0
b0 CLK
#40850000.0
b1 CLK
#40900000.0
b0 CLK
#40950000.0
b1 CLK
#41000000.0
b0 CLK
#41050000.0
b1 CLK
#41100000.0
b0 CLK
#41150000.0
b1 CLK
#41200000.0
b0 CLK
#41250000.0
b1 CLK
#41300000.0
b0 CLK
#41350000.0
b1 CLK
#41400000.0
b0 CLK
#41450000.0
b1 CLK
#41500000.0
b0 CLK
#41550000.0
b1 CLK
#41600000.0
b0 CLK
#41650000.0
b1 CLK
#41700000.0
b0 CLK
#41750000.0
b1 CLK
#41800000.0
b0 CLK
#41850000.0
b1 CLK
#41900000.0
b0 CLK
#41950000.0
b1 CLK
#42000000.0
b0 CLK
#42050000.0
b1 CLK
#42100000.0
b0 CLK
#42150000.0
b1 CLK
#42200000.0
b0 CLK
#42250000.0
b1 CLK
#42300000.0
b0 CLK
#42350000.0
b1 CLK
#42400000.0
b0 CLK
#42450000.0
b1 CLK
#42500000.0
b0 CLK
#42550000.0
b1 CLK
#42600000.0
b0 CLK
#42650000.0
b1 CLK
#42700000.0
b0 CLK
#42750000.0
b1 CLK
#42800000.0
b0 CLK
#42850000.0
b1 CLK
#42900000.0
b0 CLK
#42950000.0
b1 CLK
#43000000.0
b0 CLK
#43050000.0
b1 CLK
#43100000.0
b0 CLK
#43150000.0
b1 CLK
#43200000.0
b0 CLK
#43250000.0
b1 CLK
#43300000.0
b0 CLK
#43350000.0
b1 CLK
#43400000.0
b0 CLK
#43450000.0
b1 CLK
#43500000.0
b0 CLK
#43550000.0
b1 CLK
#43600000.0
b0 CLK
#43650000.0
b1 CLK
#43700000.0
b0 CLK
#43750000.0
b1 CLK
#43800000.0
b0 CLK
#43850000.0
b1 CLK
#43900000.0
b0 CLK
#43950000.0
b1 CLK
#44000000.0
b0 CLK
#44050000.0
b1 CLK
#44100000.0
b0 CLK
#44150000.0
b1 CLK
#44200000.0
b0 CLK
#44250000.0
b1 CLK
#44300000.0
b0 CLK
#44350000.0
b1 CLK
#44400000.0
b0 CLK
#44450000.0
b1 CLK
#44500000.0
b0 CLK
#44550000.0
b1 CLK
#44600000.0
b0 CLK
#44650000.0
b1 CLK
#44700000.0
b0 CLK
#44750000.0
b1 CLK
#44800000.0
b0 CLK
#44850000.0
b1 CLK
#44900000.0
b0 CLK
#44950000.0
b1 CLK
#45000000.0
b0 CLK
#45050000.0
b1 CLK
#45100000.0
b0 CLK
#45150000.0
b1 CLK
#45200000.0
b0 CLK
#45250000.0
b1 CLK
#45300000.0
b0 CLK
#45350000.0
b1 CLK
#45400000.0
b0 CLK
#45450000.0
b1 CLK
#45500000.0
b0 CLK
#45550000.0
b1 CLK
#45600000.0
b0 CLK
#45650000.0
b1 CLK
#45700000.0
b0 CLK
#45750000.0
b1 CLK
b1 SPI_CLK
b1 SPI_DIN
b0 SPI_DOUT
b1 CH3
b0 CH4
b0 CH8
b0 CH16
#45800000.0
b0 CLK
#45850000.0
b1 CLK
#45900000.0
b0 CLK
#45950000.0
b1 CLK
#46000000.0
b0 CLK
#46050000.0
b1 CLK
#46100000.0
b0 CLK
#46150000.0
b1 CLK
#46200000.0
b0 CLK
#46250000.0
b1 CLK
#46300000.0
b0 CLK
#46350000.0
b1 CLK
#46400000.0
b0 CLK
#46450000.0
b1 CLK
#46500000.0
b0 CLK
#46550000.0
b1 CLK
#46600000.0
b0 CLK
#46650000.0
b1 CLK
#46700000.0
b0 CLK
#46750000.0
b1 CLK
#46800000.0
b0 CLK
#46850000.0
b1 CLK
#46900000.0
b0 CLK
#46950000.0
b1 CLK
#47000000.0
b0 CLK
#47050000.0
b1 CLK
#47100000.0
b0 CLK
#47150000.0
b1 CLK
#47200000.0
b0 CLK
#47250000.0
b1 CLK
#47300000.0
b0 CLK
#47350000.0
b1 CLK
#47400000.0
b0 CLK
#47450000.0
b1 CLK
#47500000.0
b0 CLK
#47550000.0
b1 CLK
#47600000.0
b0 CLK
#47650000.0
b1 CLK
#47700000.0
b0 CLK
#47750000.0
b1 CLK
#47800000.0
b0 CLK
#47850000.0
b1 CLK
#47900000.0
b0 CLK
#47950000.0
b1 CLK
#48000000.0
b0 CLK
#48050000.0
b1 CLK
#48100000.0
b0 CLK
#48150000.0
b1 CLK
#48200000.0
b0 CLK
#48250000.0
b1 CLK
#48300000.0
b0 CLK
#48350000.0
b1 CLK
#48400000.0
b0 CLK
#48450000.0
b1 CLK
#48500000.0
b0 CLK
#48550000.0
b1 CLK
#48600000.0
b0 CLK
#48650000.0
b1 CLK
#48700000.0
b0 CLK
#48750000.0
b1 CLK
#48800000.0
b0 CLK
#48850000.0
b1 CLK
#48900000.0
b0 CLK
#48950000.0
b1 CLK
#49000000.0
b0 CLK
#49050000.0
b1 CLK
#49100000.0
b0 CLK
#49150000.0
b1 CLK
#49200000.0
b0 CLK
#49250000.0
b1 CLK
#49300000.0
b0 CLK
#49350000.0
b1 CLK
#49400000.0
b0 CLK
#49450000.0
b1 CLK
#49500000.0
b0 CLK
#49550000.0
b1 CLK
#49600000.0
b0 CLK
#49650000.0
b1 CLK
#49700000.0
b0 CLK
#49750000.0
b1 CLK
#49800000.0
b0 CLK
#49850000.0
b1 CLK
